^C:\USERS\LIRAN\SOURCE\REPOS\INJECTION\DEBUG\MAIN.OBJ|C:\USERS\LIRAN\SOURCE\REPOS\INJECTION\DEBUG\STDAFX.OBJ
C:\USERS\LIRAN\SOURCE\REPOS\INJECTION\DEBUG\INJECTION.EXE
C:\USERS\LIRAN\SOURCE\REPOS\INJECTION\DEBUG\INJECTION.ILK
C:\USERS\LIRAN\SOURCE\REPOS\INJECTION\DEBUG\INJECTION.PDB
