^C:\USERS\LIRAN\DESKTOP\NEWDLL\X64\RELEASE\MAIN.OBJ|C:\USERS\LIRAN\DESKTOP\NEWDLL\X64\RELEASE\STDAFX.OBJ
C:\USERS\LIRAN\DESKTOP\NEWDLL\X64\RELEASE\NEWDLL.DLL
C:\USERS\LIRAN\DESKTOP\NEWDLL\X64\RELEASE\NEWDLL.PDB
